%YAML 1.1
%TAG !u! tag:unity3d.com,2011:
--- !u!1 &1787230805078705017
GameObject:
  m_ObjectHideFlags: 0
  m_CorrespondingSourceObject: {fileID: 0}
  m_PrefabInstance: {fileID: 0}
  m_PrefabAsset: {fileID: 0}
  serializedVersion: 6
  m_Component:
  - component: {fileID: 2441188501665225128}
  - component: {fileID: 7753198265624785791}
  m_Layer: 31
  m_Name: Grassland_Sievert
  m_TagString: Untagged
  m_Icon: {fileID: 0}
  m_NavMeshLayer: 0
  m_StaticEditorFlags: 0
  m_IsActive: 1
--- !u!4 &2441188501665225128
Transform:
  m_ObjectHideFlags: 0
  m_CorrespondingSourceObject: {fileID: 0}
  m_PrefabInstance: {fileID: 0}
  m_PrefabAsset: {fileID: 0}
  m_GameObject: {fileID: 1787230805078705017}
  m_LocalRotation: {x: 0, y: 0, z: 0, w: 1}
  m_LocalPosition: {x: 0, y: 0, z: 0}
  m_LocalScale: {x: 1, y: 1, z: 1}
  m_Children:
  - {fileID: 3156800092016319608}
  m_Father: {fileID: 0}
  m_RootOrder: 0
  m_LocalEulerAnglesHint: {x: 0, y: 0, z: 0}
--- !u!156049354 &7753198265624785791
Grid:
  m_ObjectHideFlags: 0
  m_CorrespondingSourceObject: {fileID: 0}
  m_PrefabInstance: {fileID: 0}
  m_PrefabAsset: {fileID: 0}
  m_GameObject: {fileID: 1787230805078705017}
  m_Enabled: 1
  m_CellSize: {x: 1, y: 1, z: 0}
  m_CellGap: {x: 0, y: 0, z: 0}
  m_CellLayout: 0
  m_CellSwizzle: 0
--- !u!1 &2898781326362451380
GameObject:
  m_ObjectHideFlags: 0
  m_CorrespondingSourceObject: {fileID: 0}
  m_PrefabInstance: {fileID: 0}
  m_PrefabAsset: {fileID: 0}
  serializedVersion: 6
  m_Component:
  - component: {fileID: 3156800092016319608}
  - component: {fileID: 3682087769021743035}
  - component: {fileID: 1324906946744955825}
  m_Layer: 31
  m_Name: Layer1
  m_TagString: Untagged
  m_Icon: {fileID: 0}
  m_NavMeshLayer: 0
  m_StaticEditorFlags: 0
  m_IsActive: 1
--- !u!4 &3156800092016319608
Transform:
  m_ObjectHideFlags: 0
  m_CorrespondingSourceObject: {fileID: 0}
  m_PrefabInstance: {fileID: 0}
  m_PrefabAsset: {fileID: 0}
  m_GameObject: {fileID: 2898781326362451380}
  m_LocalRotation: {x: -0, y: -0, z: -0, w: 1}
  m_LocalPosition: {x: 0, y: 0, z: 0}
  m_LocalScale: {x: 1, y: 1, z: 1}
  m_Children: []
  m_Father: {fileID: 2441188501665225128}
  m_RootOrder: 0
  m_LocalEulerAnglesHint: {x: 0, y: 0, z: 0}
--- !u!1839735485 &3682087769021743035
Tilemap:
  m_ObjectHideFlags: 0
  m_CorrespondingSourceObject: {fileID: 0}
  m_PrefabInstance: {fileID: 0}
  m_PrefabAsset: {fileID: 0}
  m_GameObject: {fileID: 2898781326362451380}
  m_Enabled: 1
  m_Tiles:
  - first: {x: 2, y: -4, z: 0}
    second:
      m_TileIndex: 15
      m_TileSpriteIndex: 15
      m_TileMatrixIndex: 0
      m_TileColorIndex: 0
      m_ObjectToInstantiate: {fileID: 0}
      m_TileFlags: 1
      m_ColliderType: 1
  - first: {x: 3, y: -4, z: 0}
    second:
      m_TileIndex: 16
      m_TileSpriteIndex: 16
      m_TileMatrixIndex: 0
      m_TileColorIndex: 0
      m_ObjectToInstantiate: {fileID: 0}
      m_TileFlags: 1
      m_ColliderType: 1
  - first: {x: 4, y: -4, z: 0}
    second:
      m_TileIndex: 17
      m_TileSpriteIndex: 17
      m_TileMatrixIndex: 0
      m_TileColorIndex: 0
      m_ObjectToInstantiate: {fileID: 0}
      m_TileFlags: 1
      m_ColliderType: 1
  - first: {x: 5, y: -4, z: 0}
    second:
      m_TileIndex: 18
      m_TileSpriteIndex: 18
      m_TileMatrixIndex: 0
      m_TileColorIndex: 0
      m_ObjectToInstantiate: {fileID: 0}
      m_TileFlags: 1
      m_ColliderType: 1
  - first: {x: 6, y: -4, z: 0}
    second:
      m_TileIndex: 19
      m_TileSpriteIndex: 19
      m_TileMatrixIndex: 0
      m_TileColorIndex: 0
      m_ObjectToInstantiate: {fileID: 0}
      m_TileFlags: 1
      m_ColliderType: 1
  - first: {x: 2, y: -3, z: 0}
    second:
      m_TileIndex: 10
      m_TileSpriteIndex: 10
      m_TileMatrixIndex: 0
      m_TileColorIndex: 0
      m_ObjectToInstantiate: {fileID: 0}
      m_TileFlags: 1
      m_ColliderType: 1
  - first: {x: 3, y: -3, z: 0}
    second:
      m_TileIndex: 11
      m_TileSpriteIndex: 11
      m_TileMatrixIndex: 0
      m_TileColorIndex: 0
      m_ObjectToInstantiate: {fileID: 0}
      m_TileFlags: 1
      m_ColliderType: 1
  - first: {x: 4, y: -3, z: 0}
    second:
      m_TileIndex: 12
      m_TileSpriteIndex: 12
      m_TileMatrixIndex: 0
      m_TileColorIndex: 0
      m_ObjectToInstantiate: {fileID: 0}
      m_TileFlags: 1
      m_ColliderType: 1
  - first: {x: 5, y: -3, z: 0}
    second:
      m_TileIndex: 13
      m_TileSpriteIndex: 13
      m_TileMatrixIndex: 0
      m_TileColorIndex: 0
      m_ObjectToInstantiate: {fileID: 0}
      m_TileFlags: 1
      m_ColliderType: 1
  - first: {x: 6, y: -3, z: 0}
    second:
      m_TileIndex: 14
      m_TileSpriteIndex: 14
      m_TileMatrixIndex: 0
      m_TileColorIndex: 0
      m_ObjectToInstantiate: {fileID: 0}
      m_TileFlags: 1
      m_ColliderType: 1
  - first: {x: 2, y: -2, z: 0}
    second:
      m_TileIndex: 5
      m_TileSpriteIndex: 5
      m_TileMatrixIndex: 0
      m_TileColorIndex: 0
      m_ObjectToInstantiate: {fileID: 0}
      m_TileFlags: 1
      m_ColliderType: 1
  - first: {x: 3, y: -2, z: 0}
    second:
      m_TileIndex: 6
      m_TileSpriteIndex: 6
      m_TileMatrixIndex: 0
      m_TileColorIndex: 0
      m_ObjectToInstantiate: {fileID: 0}
      m_TileFlags: 1
      m_ColliderType: 1
  - first: {x: 4, y: -2, z: 0}
    second:
      m_TileIndex: 7
      m_TileSpriteIndex: 7
      m_TileMatrixIndex: 0
      m_TileColorIndex: 0
      m_ObjectToInstantiate: {fileID: 0}
      m_TileFlags: 1
      m_ColliderType: 1
  - first: {x: 5, y: -2, z: 0}
    second:
      m_TileIndex: 8
      m_TileSpriteIndex: 8
      m_TileMatrixIndex: 0
      m_TileColorIndex: 0
      m_ObjectToInstantiate: {fileID: 0}
      m_TileFlags: 1
      m_ColliderType: 1
  - first: {x: 6, y: -2, z: 0}
    second:
      m_TileIndex: 9
      m_TileSpriteIndex: 9
      m_TileMatrixIndex: 0
      m_TileColorIndex: 0
      m_ObjectToInstantiate: {fileID: 0}
      m_TileFlags: 1
      m_ColliderType: 1
  - first: {x: 2, y: -1, z: 0}
    second:
      m_TileIndex: 0
      m_TileSpriteIndex: 0
      m_TileMatrixIndex: 0
      m_TileColorIndex: 0
      m_ObjectToInstantiate: {fileID: 0}
      m_TileFlags: 1
      m_ColliderType: 1
  - first: {x: 3, y: -1, z: 0}
    second:
      m_TileIndex: 1
      m_TileSpriteIndex: 1
      m_TileMatrixIndex: 0
      m_TileColorIndex: 0
      m_ObjectToInstantiate: {fileID: 0}
      m_TileFlags: 1
      m_ColliderType: 1
  - first: {x: 4, y: -1, z: 0}
    second:
      m_TileIndex: 2
      m_TileSpriteIndex: 2
      m_TileMatrixIndex: 0
      m_TileColorIndex: 0
      m_ObjectToInstantiate: {fileID: 0}
      m_TileFlags: 1
      m_ColliderType: 1
  - first: {x: 5, y: -1, z: 0}
    second:
      m_TileIndex: 3
      m_TileSpriteIndex: 3
      m_TileMatrixIndex: 0
      m_TileColorIndex: 0
      m_ObjectToInstantiate: {fileID: 0}
      m_TileFlags: 1
      m_ColliderType: 1
  - first: {x: 6, y: -1, z: 0}
    second:
      m_TileIndex: 4
      m_TileSpriteIndex: 4
      m_TileMatrixIndex: 0
      m_TileColorIndex: 0
      m_ObjectToInstantiate: {fileID: 0}
      m_TileFlags: 1
      m_ColliderType: 1
  m_AnimatedTiles: {}
  m_TileAssetArray:
  - m_RefCount: 1
    m_Data: {fileID: 11400000, guid: 472dd1391710f14459df2073cedbfff5, type: 2}
  - m_RefCount: 1
    m_Data: {fileID: 11400000, guid: 45259c88d618733449eac5780d8e75b4, type: 2}
  - m_RefCount: 1
    m_Data: {fileID: 11400000, guid: 4d36a528e9c6e3c47b8b94dab78bc4a0, type: 2}
  - m_RefCount: 1
    m_Data: {fileID: 11400000, guid: 5c3f8a59930e1004881303098f9067bf, type: 2}
  - m_RefCount: 1
    m_Data: {fileID: 11400000, guid: 57d855645589efa4c8c6ea5c91cecac8, type: 2}
  - m_RefCount: 1
    m_Data: {fileID: 11400000, guid: 8256ff56bf3f6ed458c6a50bc9464abd, type: 2}
  - m_RefCount: 1
    m_Data: {fileID: 11400000, guid: 46455bc0ae252504da0215429c01a144, type: 2}
  - m_RefCount: 1
    m_Data: {fileID: 11400000, guid: 01c83e5562fa47d44b54a7f9423687ac, type: 2}
  - m_RefCount: 1
    m_Data: {fileID: 11400000, guid: 2afb3d98bd0e43f4389a821e7d81589a, type: 2}
  - m_RefCount: 1
    m_Data: {fileID: 11400000, guid: 4cc3a7710eca9444dae32e4f88d35c95, type: 2}
  - m_RefCount: 1
    m_Data: {fileID: 11400000, guid: dd56afdd2e719ba4f8c81e67375e3562, type: 2}
  - m_RefCount: 1
    m_Data: {fileID: 11400000, guid: b1bb48b9c59648641b437a632fbb81b7, type: 2}
  - m_RefCount: 1
    m_Data: {fileID: 11400000, guid: cf9a894a1f472044183a3d247ab4ab3b, type: 2}
  - m_RefCount: 1
    m_Data: {fileID: 11400000, guid: 1ac85e406b9e17b43af13fb86fca4a81, type: 2}
  - m_RefCount: 1
    m_Data: {fileID: 11400000, guid: f68722c4d6082b845b081b319333c6cf, type: 2}
  - m_RefCount: 1
    m_Data: {fileID: 11400000, guid: add27b91ef036f7439726e28180f3860, type: 2}
  - m_RefCount: 1
    m_Data: {fileID: 11400000, guid: b060274ca36195e4fa5712c8644c8b63, type: 2}
  - m_RefCount: 1
    m_Data: {fileID: 11400000, guid: 6f63d9982adfbcb45ba491a16d81934e, type: 2}
  - m_RefCount: 1
    m_Data: {fileID: 11400000, guid: b4e09100e7dfb254aa951b4d8414a53d, type: 2}
  - m_RefCount: 1
    m_Data: {fileID: 11400000, guid: f51d3abcf8bd84c4393c4245ee91147e, type: 2}
  m_TileSpriteArray:
  - m_RefCount: 1
    m_Data: {fileID: -3468335221829518024, guid: 4b54242e85e06224b9a958064c67df73,
      type: 3}
  - m_RefCount: 1
    m_Data: {fileID: -3192387756638750637, guid: 4b54242e85e06224b9a958064c67df73,
      type: 3}
  - m_RefCount: 1
    m_Data: {fileID: -288222518327382603, guid: 4b54242e85e06224b9a958064c67df73,
      type: 3}
  - m_RefCount: 1
    m_Data: {fileID: 3216954917108893235, guid: 4b54242e85e06224b9a958064c67df73,
      type: 3}
  - m_RefCount: 1
    m_Data: {fileID: 1613331070335340668, guid: 4b54242e85e06224b9a958064c67df73,
      type: 3}
  - m_RefCount: 1
    m_Data: {fileID: 1186800127147684954, guid: 4b54242e85e06224b9a958064c67df73,
      type: 3}
  - m_RefCount: 1
    m_Data: {fileID: 1024037918609122555, guid: 4b54242e85e06224b9a958064c67df73,
      type: 3}
  - m_RefCount: 1
    m_Data: {fileID: 5040912986734265581, guid: 4b54242e85e06224b9a958064c67df73,
      type: 3}
  - m_RefCount: 1
    m_Data: {fileID: -8737342613890201808, guid: 4b54242e85e06224b9a958064c67df73,
      type: 3}
  - m_RefCount: 1
    m_Data: {fileID: -7481337024795054456, guid: 4b54242e85e06224b9a958064c67df73,
      type: 3}
  - m_RefCount: 1
    m_Data: {fileID: -1361260875088832005, guid: 4b54242e85e06224b9a958064c67df73,
      type: 3}
  - m_RefCount: 1
    m_Data: {fileID: -3558934492318336135, guid: 4b54242e85e06224b9a958064c67df73,
      type: 3}
  - m_RefCount: 1
    m_Data: {fileID: 8926102273477323702, guid: 4b54242e85e06224b9a958064c67df73,
      type: 3}
  - m_RefCount: 1
    m_Data: {fileID: -1073003608718490070, guid: 4b54242e85e06224b9a958064c67df73,
      type: 3}
  - m_RefCount: 1
    m_Data: {fileID: -434035278787350322, guid: 4b54242e85e06224b9a958064c67df73,
      type: 3}
  - m_RefCount: 1
    m_Data: {fileID: 499195473384676467, guid: 4b54242e85e06224b9a958064c67df73, type: 3}
  - m_RefCount: 1
    m_Data: {fileID: -6283960263391451005, guid: 4b54242e85e06224b9a958064c67df73,
      type: 3}
  - m_RefCount: 1
    m_Data: {fileID: -3822174216262859315, guid: 4b54242e85e06224b9a958064c67df73,
      type: 3}
  - m_RefCount: 1
    m_Data: {fileID: -112902478364052669, guid: 4b54242e85e06224b9a958064c67df73,
      type: 3}
  - m_RefCount: 1
    m_Data: {fileID: 2321112713838229568, guid: 4b54242e85e06224b9a958064c67df73,
      type: 3}
  m_TileMatrixArray:
  - m_RefCount: 20
    m_Data:
      e00: 1
      e01: 0
      e02: 0
      e03: 0
      e10: 0
      e11: 1
      e12: 0
      e13: 0
      e20: 0
      e21: 0
      e22: 1
      e23: 0
      e30: 0
      e31: 0
      e32: 0
      e33: 1
  m_TileColorArray:
  - m_RefCount: 20
    m_Data: {r: 1, g: 1, b: 1, a: 1}
  m_AnimationFrameRate: 1
  m_Color: {r: 1, g: 1, b: 1, a: 1}
  m_Origin: {x: 0, y: -4, z: 0}
  m_Size: {x: 7, y: 4, z: 1}
  m_TileAnchor: {x: 0.5, y: 0.5, z: 0}
  m_TileOrientation: 0
  m_TileOrientationMatrix:
    e00: 1
    e01: 0
    e02: 0
    e03: 0
    e10: 0
    e11: 1
    e12: 0
    e13: 0
    e20: 0
    e21: 0
    e22: 1
    e23: 0
    e30: 0
    e31: 0
    e32: 0
    e33: 1
--- !u!483693784 &1324906946744955825
TilemapRenderer:
  m_ObjectHideFlags: 0
  m_CorrespondingSourceObject: {fileID: 0}
  m_PrefabInstance: {fileID: 0}
  m_PrefabAsset: {fileID: 0}
  m_GameObject: {fileID: 2898781326362451380}
  m_Enabled: 0
  m_CastShadows: 0
  m_ReceiveShadows: 0
  m_DynamicOccludee: 0
  m_MotionVectors: 1
  m_LightProbeUsage: 0
  m_ReflectionProbeUsage: 0
  m_RenderingLayerMask: 1
  m_RendererPriority: 0
  m_Materials:
  - {fileID: 10754, guid: 0000000000000000f000000000000000, type: 0}
  m_StaticBatchInfo:
    firstSubMesh: 0
    subMeshCount: 0
  m_StaticBatchRoot: {fileID: 0}
  m_ProbeAnchor: {fileID: 0}
  m_LightProbeVolumeOverride: {fileID: 0}
  m_ScaleInLightmap: 1
  m_ReceiveGI: 1
  m_PreserveUVs: 0
  m_IgnoreNormalsForChartDetection: 0
  m_ImportantGI: 0
  m_StitchLightmapSeams: 1
  m_SelectedEditorRenderState: 0
  m_MinimumChartSize: 4
  m_AutoUVMaxDistance: 0.5
  m_AutoUVMaxAngle: 89
  m_LightmapParameters: {fileID: 0}
  m_SortingLayerID: 0
  m_SortingLayer: 0
  m_SortingOrder: 0
  m_ChunkSize: {x: 32, y: 32, z: 32}
  m_ChunkCullingBounds: {x: 0, y: 0, z: 0}
  m_MaxChunkCount: 16
  m_MaxFrameAge: 16
  m_SortOrder: 0
  m_Mode: 0
  m_DetectChunkCullingBounds: 0
  m_MaskInteraction: 0
--- !u!114 &-6723676498363465292
MonoBehaviour:
  m_ObjectHideFlags: 0
  m_CorrespondingSourceObject: {fileID: 0}
  m_PrefabInstance: {fileID: 0}
  m_PrefabAsset: {fileID: 0}
  m_GameObject: {fileID: 0}
  m_Enabled: 1
  m_EditorHideFlags: 0
  m_Script: {fileID: 12395, guid: 0000000000000000e000000000000000, type: 0}
  m_Name: Palette Settings
  m_EditorClassIdentifier: 
  cellSizing: 0
